…
    + Actually the integer argument is the starting point and it always produces the same result as the second example in this reference[^3]
- re-calling this function with NULL argument (like some lines below in the chunk) reset it, preventing us from obtaining another time the same "random" numbers.

* **Statement 5.** here we use the `sample()` function (I just remembered its result but not how to define its arguments), basically it process integers in argument returning a set (of determined size) of these datas. For arguments explanation I found the **RStudio** help useful enough.
    1. Integers set from which to sample datas = our *statement 1*;
    2. Size of resulting set = our *statement 3*;
    3. Boolean value `replace`indicating if resulting set may contain replacements. In our case we have the obligation to say True due to size being larger than datas;
    4. A probability weights vector = our *statement 2*;

* **Statement 6.** In our last statement the most important element is the package `tibble`, it made my first obstacle in this assignement with the message:  
    
    > Line 15 Error in loadNamespace(name) : there is no package called 'tibble' Calls: <Anonymous> ... tryCatch -> tryCatchList -> tryCatchOne -> <Anonymous> Execution halted
    
    Asking for some help to a fellow, she told me how to install this package, so I made some research to understand how it works and why when I run `fake_data_set` it return
`# A tibble: 400 x 1  
   "Fake measurement"  
                <dbl>  
 1                  1  
 2                  1  
 3                  2  
 4                  5  
 5                  1  
 6                  0  
 7                  5  
 8                  2  
 9                  2  
10                  1  
# ... with 390 more rows`  
…
